﻿{
  "dependencies": {
    "Microsoft.ApplicationInsights": "1.0.0",
    "Microsoft.ApplicationInsights.PersistenceChannel": "1.0.0",
    "Microsoft.ApplicationInsights.WindowsApps": "1.0.0",
    "Microsoft.NETCore.UniversalWindowsPlatform": "5.0.0",
    "MvvmLight": "5.1.1",
    "Newtonsoft.Json": "7.0.1",
    "SQLite.Net-PCL": "3.0.5",
    "SQLite.Net.Async-PCL": "3.0.5",
    "WindowsAzure.MobileServices": "1.3.2"
  },
  "frameworks": {
    "uap10.0": {}
  },
  "runtimes": {
    "win10-arm": {},
    "win10-arm-aot": {},
    "win10-x86": {},
    "win10-x86-aot": {},
    "win10-x64": {},
    "win10-x64-aot": {}
  }
}